
{
    "student_name":"Rahul S Agasthya",
    "banner_image":"./Images/CSBanner.jpg",
    "pages":[
        {
            "page_title":"Page 1",
            "page_style":"Style2",
            "has_banner":true,
            "components":[
                {
                    "component_type":"Heading",
                    "Heading":"This is the first page"
                },
                {
                    "component_type":"Image",
                    "Image_Name":"C:\\Users\\Rahul\\Documents\\NetBeansProjects\\The ePortfolio Generator\\The ePortfolio Generator\\Images\\slide_show_images\\ArchesUtah.jpg",
                    "caption":"Utah"
                }
            ]
        },
        {
            "page_title":"Page2",
            "page_style":"Style4",
            "has_banner":false,
            "components":[
                {
                    "component_type":"Text Box",
                    "Text_Box":"This is a trial."
                }
            ]
        }
    ],
    "footer":"This work belongs to \"Student Name\""
}